%YAML 1.1
%TAG !u! tag:unity3d.com,2011:
--- !u!114 &11400000
MonoBehaviour:
  m_ObjectHideFlags: 0
  m_PrefabParentObject: {fileID: 0}
  m_PrefabInternal: {fileID: 0}
  m_GameObject: {fileID: 0}
  m_Enabled: 1
  m_EditorHideFlags: 0
  m_Script: {fileID: 11500000, guid: b7f59e54f2bfd184b9dd451a678d089b, type: 3}
  m_Name: 6D
  m_EditorClassIdentifier: 
  PositionNoise:
  - X:
      Frequency: 3.2
      Amplitude: 0.011
      Constant: 1
    Y:
      Frequency: 1.9
      Amplitude: 0.059
      Constant: 1
    Z:
      Frequency: 3.33
      Amplitude: 0.021
      Constant: 1
  - X:
      Frequency: 7.7
      Amplitude: 0.009
      Constant: 1
    Y:
      Frequency: 9.1
      Amplitude: 0.04
      Constant: 0
    Z:
      Frequency: 9.22
      Amplitude: 0.009
      Constant: 1
  - X:
      Frequency: 51.51
      Amplitude: 0.002
      Constant: 1
    Y:
      Frequency: 55.54
      Amplitude: 0.05
      Constant: 1
    Z:
      Frequency: 58.55
      Amplitude: 0.017
      Constant: 1
  OrientationNoise:
  - X:
      Frequency: 5.83
      Amplitude: 0.09
      Constant: 1
    Y:
      Frequency: 1.8
      Amplitude: 0.059
      Constant: 1
    Z:
      Frequency: 2.38
      Amplitude: 0.017
      Constant: 1
  - X:
      Frequency: 9.17
      Amplitude: 0.14
      Constant: 1
    Y:
      Frequency: 11.35
      Amplitude: 0.041
      Constant: 1
    Z:
      Frequency: 10.52
      Amplitude: 0.009
      Constant: 1
  - X:
      Frequency: 57.17
      Amplitude: 0.15
      Constant: 1
    Y:
      Frequency: 54.17
      Amplitude: 0.048
      Constant: 1
    Z:
      Frequency: 63.76
      Amplitude: 0.016
      Constant: 1
